<?xml version="1.0" encoding="UTF-8" standalone="no"?>
<!DOCTYPE svg PUBLIC "-//W3C//DTD SVG 1.1//EN"
 "http://www.w3.org/Graphics/SVG/1.1/DTD/svg11.dtd">
<!-- Generated by graphviz version 11.0.0 (0)
 -->
<!-- Title: structs Pages: 1 -->
<svg width="1145pt" height="1949pt"
 viewBox="0.00 0.00 1145.00 1949.00" xmlns="http://www.w3.org/2000/svg" xmlns:xlink="http://www.w3.org/1999/xlink">
<g id="graph0" class="graph" transform="scale(1 1) rotate(0) translate(4 1945)">
<title>structs</title>
<polygon fill="white" stroke="none" points="-4,4 -4,-1945 1141,-1945 1141,4 -4,4"/>
<!-- cad_notes -->
<g id="node1" class="node">
<title>cad_notes</title>
<polygon fill="none" stroke="black" points="37,-1031 37,-1053 126,-1053 126,-1031 37,-1031"/>
<text text-anchor="start" x="53" y="-1037.7" font-family="Times,serif" font-weight="bold" font-size="14.00">cad_notes</text>
<polygon fill="none" stroke="black" points="37,-1008 37,-1031 60,-1031 60,-1008 37,-1008"/>
<text text-anchor="start" x="39.88" y="-1014.7" font-family="Times,serif" font-size="14.00">🔑</text>
<polygon fill="none" stroke="black" points="60,-1008 60,-1031 126,-1031 126,-1008 60,-1008"/>
<text text-anchor="start" x="87.75" y="-1014.45" font-family="Times,serif" font-size="14.00">id</text>
<polygon fill="none" stroke="black" points="37,-986 37,-1008 60,-1008 60,-986 37,-986"/>
<text text-anchor="start" x="46.62" y="-991.7" font-family="Times,serif" font-size="14.00"> </text>
<polygon fill="none" stroke="black" points="60,-986 60,-1008 126,-1008 126,-986 60,-986"/>
<text text-anchor="start" x="73.12" y="-991.7" font-family="Times,serif" font-size="14.00">version</text>
<polygon fill="none" stroke="black" points="37,-964 37,-986 60,-986 60,-964 37,-964"/>
<text text-anchor="start" x="46.62" y="-969.7" font-family="Times,serif" font-size="14.00"> </text>
<polygon fill="none" stroke="black" points="60,-964 60,-986 126,-986 126,-964 60,-964"/>
<text text-anchor="start" x="69" y="-969.7" font-family="Times,serif" font-size="14.00">entity_id</text>
<polygon fill="none" stroke="black" points="37,-942 37,-964 60,-964 60,-942 37,-942"/>
<text text-anchor="start" x="46.62" y="-947.7" font-family="Times,serif" font-size="14.00"> </text>
<polygon fill="none" stroke="black" points="60,-942 60,-964 126,-964 126,-942 60,-942"/>
<text text-anchor="start" x="62.62" y="-947.7" font-family="Times,serif" font-size="14.00">entity_type</text>
<polygon fill="none" stroke="black" points="37,-920 37,-942 60,-942 60,-920 37,-920"/>
<text text-anchor="start" x="46.62" y="-925.7" font-family="Times,serif" font-size="14.00"> </text>
<polygon fill="none" stroke="black" points="60,-920 60,-942 126,-942 126,-920 60,-920"/>
<text text-anchor="start" x="78.75" y="-925.7" font-family="Times,serif" font-size="14.00">notes</text>
</g>
<!-- class_declaration -->
<g id="node2" class="node">
<title>class_declaration</title>
<polygon fill="none" stroke="black" points="430,-1117 430,-1139 576,-1139 576,-1117 430,-1117"/>
<text text-anchor="start" x="453.5" y="-1123.7" font-family="Times,serif" font-weight="bold" font-size="14.00">class_declaration</text>
<polygon fill="none" stroke="black" points="430,-1094 430,-1117 453,-1117 453,-1094 430,-1094"/>
<text text-anchor="start" x="432.88" y="-1100.7" font-family="Times,serif" font-size="14.00">🔑</text>
<polygon fill="none" stroke="black" points="453,-1094 453,-1117 576,-1117 576,-1094 453,-1094"/>
<text text-anchor="start" x="509.25" y="-1100.45" font-family="Times,serif" font-size="14.00">id</text>
<polygon fill="none" stroke="black" points="430,-1072 430,-1094 453,-1094 453,-1072 430,-1072"/>
<text text-anchor="start" x="439.62" y="-1077.7" font-family="Times,serif" font-size="14.00"> </text>
<polygon fill="none" stroke="black" points="453,-1072 453,-1094 576,-1094 576,-1072 453,-1072"/>
<text text-anchor="start" x="494.62" y="-1077.7" font-family="Times,serif" font-size="14.00">version</text>
<polygon fill="none" stroke="black" points="430,-1050 430,-1072 453,-1072 453,-1050 430,-1050"/>
<text text-anchor="start" x="439.62" y="-1055.7" font-family="Times,serif" font-size="14.00"> </text>
<polygon fill="none" stroke="black" points="453,-1050 453,-1072 576,-1072 576,-1050 453,-1050"/>
<text text-anchor="start" x="455.62" y="-1055.7" font-family="Times,serif" font-size="14.00">parent_namespace_id</text>
<polygon fill="none" stroke="black" points="430,-1028 430,-1050 453,-1050 453,-1028 430,-1028"/>
<text text-anchor="start" x="439.62" y="-1033.7" font-family="Times,serif" font-size="14.00"> </text>
<polygon fill="none" stroke="black" points="453,-1028 453,-1050 576,-1050 576,-1028 453,-1028"/>
<text text-anchor="start" x="459.38" y="-1033.7" font-family="Times,serif" font-size="14.00">class_namespace_id</text>
<polygon fill="none" stroke="black" points="430,-1006 430,-1028 453,-1028 453,-1006 430,-1006"/>
<text text-anchor="start" x="439.62" y="-1011.7" font-family="Times,serif" font-size="14.00"> </text>
<polygon fill="none" stroke="black" points="453,-1006 453,-1028 576,-1028 576,-1006 453,-1006"/>
<text text-anchor="start" x="463.5" y="-1011.7" font-family="Times,serif" font-size="14.00">parent_package_id</text>
<polygon fill="none" stroke="black" points="430,-984 430,-1006 453,-1006 453,-984 430,-984"/>
<text text-anchor="start" x="439.62" y="-989.7" font-family="Times,serif" font-size="14.00"> </text>
<polygon fill="none" stroke="black" points="453,-984 453,-1006 576,-1006 576,-984 453,-984"/>
<text text-anchor="start" x="499.5" y="-989.7" font-family="Times,serif" font-size="14.00">name</text>
<polygon fill="none" stroke="black" points="430,-962 430,-984 453,-984 453,-962 430,-962"/>
<text text-anchor="start" x="439.62" y="-967.7" font-family="Times,serif" font-size="14.00"> </text>
<polygon fill="none" stroke="black" points="453,-962 453,-984 576,-984 576,-962 453,-962"/>
<text text-anchor="start" x="472.12" y="-967.7" font-family="Times,serif" font-size="14.00">qualified_name</text>
<polygon fill="none" stroke="black" points="430,-940 430,-962 453,-962 453,-940 430,-940"/>
<text text-anchor="start" x="439.62" y="-945.7" font-family="Times,serif" font-size="14.00"> </text>
<polygon fill="none" stroke="black" points="453,-940 453,-962 576,-962 576,-940 453,-940"/>
<text text-anchor="start" x="502.5" y="-945.7" font-family="Times,serif" font-size="14.00">kind</text>
<polygon fill="none" stroke="black" points="430,-918 430,-940 453,-940 453,-918 430,-918"/>
<text text-anchor="start" x="439.62" y="-923.7" font-family="Times,serif" font-size="14.00"> </text>
<polygon fill="none" stroke="black" points="453,-918 453,-940 576,-940 576,-918 453,-918"/>
<text text-anchor="start" x="497.25" y="-923.7" font-family="Times,serif" font-size="14.00">access</text>
</g>
<!-- class_declaration&#45;&gt;class_declaration -->
<g id="edge21" class="edge">
<title>class_declaration:e&#45;&gt;class_declaration:w</title>
<path fill="none" stroke="black" d="M576,-1039C624.88,-1083.17 624.88,-1161 503,-1161 388.5,-1161 381.57,-1150.41 421.68,-1113.06"/>
<polygon fill="black" stroke="black" points="423.83,-1115.83 428.88,-1106.52 419.12,-1110.65 423.83,-1115.83"/>
</g>
<!-- namespace_declaration -->
<g id="node17" class="node">
<title>namespace_declaration</title>
<polygon fill="none" stroke="black" points="628,-395 628,-417 769,-417 769,-395 628,-395"/>
<text text-anchor="start" x="630.62" y="-401.7" font-family="Times,serif" font-weight="bold" font-size="14.00">namespace_declaration</text>
<polygon fill="none" stroke="black" points="628,-372 628,-395 665,-395 665,-372 628,-372"/>
<text text-anchor="start" x="637.88" y="-378.7" font-family="Times,serif" font-size="14.00">🔑</text>
<polygon fill="none" stroke="black" points="665,-372 665,-395 769,-395 769,-372 665,-372"/>
<text text-anchor="start" x="711.75" y="-378.45" font-family="Times,serif" font-size="14.00">id</text>
<polygon fill="none" stroke="black" points="628,-350 628,-372 665,-372 665,-350 628,-350"/>
<text text-anchor="start" x="644.62" y="-355.7" font-family="Times,serif" font-size="14.00"> </text>
<polygon fill="none" stroke="black" points="665,-350 665,-372 769,-372 769,-350 665,-350"/>
<text text-anchor="start" x="697.12" y="-355.7" font-family="Times,serif" font-size="14.00">version</text>
<polygon fill="none" stroke="black" points="628,-328 628,-350 665,-350 665,-328 628,-328"/>
<text text-anchor="start" x="644.62" y="-333.7" font-family="Times,serif" font-size="14.00"> </text>
<polygon fill="none" stroke="black" points="665,-328 665,-350 769,-350 769,-328 665,-328"/>
<text text-anchor="start" x="691.5" y="-333.7" font-family="Times,serif" font-size="14.00">parent_id</text>
<polygon fill="none" stroke="black" points="628,-306 628,-328 665,-328 665,-306 628,-306"/>
<text text-anchor="start" x="644.62" y="-311.7" font-family="Times,serif" font-size="14.00"> </text>
<polygon fill="none" stroke="black" points="665,-306 665,-328 769,-328 769,-306 665,-306"/>
<text text-anchor="start" x="702" y="-311.7" font-family="Times,serif" font-size="14.00">name</text>
<polygon fill="none" stroke="black" points="628,-284 628,-306 665,-306 665,-284 628,-284"/>
<text text-anchor="start" x="644.62" y="-289.7" font-family="Times,serif" font-size="14.00"> </text>
<polygon fill="none" stroke="black" points="665,-284 665,-306 769,-306 769,-284 665,-284"/>
<text text-anchor="start" x="674.62" y="-289.7" font-family="Times,serif" font-size="14.00">qualified_name</text>
</g>
<!-- class_declaration&#45;&gt;namespace_declaration -->
<g id="edge22" class="edge">
<title>class_declaration:e&#45;&gt;namespace_declaration:w</title>
<path fill="none" stroke="black" d="M577,-1061C648.65,-1061 561.32,-450.56 616.82,-388.56"/>
<polygon fill="black" stroke="black" points="618.25,-391.76 625.64,-384.17 615.13,-385.49 618.25,-391.76"/>
</g>
<!-- source_package -->
<g id="node21" class="node">
<title>source_package</title>
<polygon fill="none" stroke="black" points="821,-1103 821,-1125 964,-1125 964,-1103 821,-1103"/>
<text text-anchor="start" x="846.75" y="-1109.7" font-family="Times,serif" font-weight="bold" font-size="14.00">source_package</text>
<polygon fill="none" stroke="black" points="821,-1080 821,-1103 844,-1103 844,-1080 821,-1080"/>
<text text-anchor="start" x="823.88" y="-1086.7" font-family="Times,serif" font-size="14.00">🔑</text>
<polygon fill="none" stroke="black" points="844,-1080 844,-1103 964,-1103 964,-1080 844,-1080"/>
<text text-anchor="start" x="898.75" y="-1086.45" font-family="Times,serif" font-size="14.00">id</text>
<polygon fill="none" stroke="black" points="821,-1058 821,-1080 844,-1080 844,-1058 821,-1058"/>
<text text-anchor="start" x="830.62" y="-1063.7" font-family="Times,serif" font-size="14.00"> </text>
<polygon fill="none" stroke="black" points="844,-1058 844,-1080 964,-1080 964,-1058 844,-1058"/>
<text text-anchor="start" x="884.12" y="-1063.7" font-family="Times,serif" font-size="14.00">version</text>
<polygon fill="none" stroke="black" points="821,-1036 821,-1058 844,-1058 844,-1036 821,-1036"/>
<text text-anchor="start" x="830.62" y="-1041.7" font-family="Times,serif" font-size="14.00"> </text>
<polygon fill="none" stroke="black" points="844,-1036 844,-1058 964,-1058 964,-1036 844,-1036"/>
<text text-anchor="start" x="878.5" y="-1041.7" font-family="Times,serif" font-size="14.00">parent_id</text>
<polygon fill="none" stroke="black" points="821,-1014 821,-1036 844,-1036 844,-1014 821,-1014"/>
<text text-anchor="start" x="830.62" y="-1019.7" font-family="Times,serif" font-size="14.00"> </text>
<polygon fill="none" stroke="black" points="844,-1014 844,-1036 964,-1036 964,-1014 844,-1014"/>
<text text-anchor="start" x="847" y="-1019.7" font-family="Times,serif" font-size="14.00">source_repository_id</text>
<polygon fill="none" stroke="black" points="821,-992 821,-1014 844,-1014 844,-992 821,-992"/>
<text text-anchor="start" x="830.62" y="-997.7" font-family="Times,serif" font-size="14.00"> </text>
<polygon fill="none" stroke="black" points="844,-992 844,-1014 964,-1014 964,-992 844,-992"/>
<text text-anchor="start" x="889" y="-997.7" font-family="Times,serif" font-size="14.00">name</text>
<polygon fill="none" stroke="black" points="821,-970 821,-992 844,-992 844,-970 821,-970"/>
<text text-anchor="start" x="830.62" y="-975.7" font-family="Times,serif" font-size="14.00"> </text>
<polygon fill="none" stroke="black" points="844,-970 844,-992 964,-992 964,-970 844,-970"/>
<text text-anchor="start" x="861.62" y="-975.7" font-family="Times,serif" font-size="14.00">qualified_name</text>
<polygon fill="none" stroke="black" points="821,-948 821,-970 844,-970 844,-948 821,-948"/>
<text text-anchor="start" x="830.62" y="-953.7" font-family="Times,serif" font-size="14.00"> </text>
<polygon fill="none" stroke="black" points="844,-948 844,-970 964,-970 964,-948 844,-948"/>
<text text-anchor="start" x="877.75" y="-953.7" font-family="Times,serif" font-size="14.00">disk_path</text>
</g>
<!-- class_declaration&#45;&gt;source_package -->
<g id="edge23" class="edge">
<title>class_declaration:e&#45;&gt;source_package:w</title>
<path fill="none" stroke="black" d="M577,-1017C668.68,-1017 691.8,-1033.65 777,-1067.5 793.21,-1073.94 796.99,-1085.36 808.94,-1089.73"/>
<polygon fill="black" stroke="black" points="808.08,-1093.14 818.51,-1091.26 809.18,-1086.22 808.08,-1093.14"/>
</g>
<!-- class_hierarchy -->
<g id="node3" class="node">
<title>class_hierarchy</title>
<polygon fill="none" stroke="black" points="244.5,-1034.5 244.5,-1056.5 340.5,-1056.5 340.5,-1034.5 244.5,-1034.5"/>
<text text-anchor="start" x="247.5" y="-1041.2" font-family="Times,serif" font-weight="bold" font-size="14.00">class_hierarchy</text>
<polygon fill="none" stroke="black" points="244.5,-1011.5 244.5,-1034.5 274.5,-1034.5 274.5,-1011.5 244.5,-1011.5"/>
<text text-anchor="start" x="250.88" y="-1018.2" font-family="Times,serif" font-size="14.00">🔑</text>
<polygon fill="none" stroke="black" points="274.5,-1011.5 274.5,-1034.5 340.5,-1034.5 340.5,-1011.5 274.5,-1011.5"/>
<text text-anchor="start" x="283.5" y="-1017.95" font-family="Times,serif" font-size="14.00">target_id</text>
<polygon fill="none" stroke="black" points="244.5,-988.5 244.5,-1011.5 274.5,-1011.5 274.5,-988.5 244.5,-988.5"/>
<text text-anchor="start" x="250.88" y="-995.2" font-family="Times,serif" font-size="14.00">🔑</text>
<polygon fill="none" stroke="black" points="274.5,-988.5 274.5,-1011.5 340.5,-1011.5 340.5,-988.5 274.5,-988.5"/>
<text text-anchor="start" x="281.25" y="-994.95" font-family="Times,serif" font-size="14.00">source_id</text>
</g>
<!-- class_hierarchy&#45;&gt;class_declaration -->
<g id="edge32" class="edge">
<title>class_hierarchy:e&#45;&gt;class_declaration:w</title>
<path fill="none" stroke="black" d="M341.5,-1023C390.77,-1023 378.14,-1093.11 417.74,-1104.07"/>
<polygon fill="black" stroke="black" points="417.14,-1107.52 427.5,-1105.31 418.02,-1100.58 417.14,-1107.52"/>
</g>
<!-- class_hierarchy&#45;&gt;class_declaration -->
<g id="edge33" class="edge">
<title>class_hierarchy:e&#45;&gt;class_declaration:w</title>
<path fill="none" stroke="black" d="M341.5,-1000C398.25,-1000 372.33,-1091.57 417.78,-1104.09"/>
<polygon fill="black" stroke="black" points="417.14,-1107.54 427.5,-1105.31 418.01,-1100.59 417.14,-1107.54"/>
</g>
<!-- class_source_file -->
<g id="node4" class="node">
<title>class_source_file</title>
<polygon fill="none" stroke="black" points="239.5,-714.5 239.5,-736.5 345.5,-736.5 345.5,-714.5 239.5,-714.5"/>
<text text-anchor="start" x="244.5" y="-721.2" font-family="Times,serif" font-weight="bold" font-size="14.00">class_source_file</text>
<polygon fill="none" stroke="black" points="239.5,-691.5 239.5,-714.5 262.5,-714.5 262.5,-691.5 239.5,-691.5"/>
<text text-anchor="start" x="242.38" y="-698.2" font-family="Times,serif" font-size="14.00">🔑</text>
<polygon fill="none" stroke="black" points="262.5,-691.5 262.5,-714.5 345.5,-714.5 345.5,-691.5 262.5,-691.5"/>
<text text-anchor="start" x="265.38" y="-697.95" font-family="Times,serif" font-size="14.00">source_file_id</text>
<polygon fill="none" stroke="black" points="239.5,-668.5 239.5,-691.5 262.5,-691.5 262.5,-668.5 239.5,-668.5"/>
<text text-anchor="start" x="242.38" y="-675.2" font-family="Times,serif" font-size="14.00">🔑</text>
<polygon fill="none" stroke="black" points="262.5,-668.5 262.5,-691.5 345.5,-691.5 345.5,-668.5 262.5,-668.5"/>
<text text-anchor="start" x="282.25" y="-674.95" font-family="Times,serif" font-size="14.00">class_id</text>
</g>
<!-- class_source_file&#45;&gt;class_declaration -->
<g id="edge24" class="edge">
<title>class_source_file:e&#45;&gt;class_declaration:w</title>
<path fill="none" stroke="black" d="M346.5,-680C382.42,-680 374.85,-716.36 386,-750.5 409.41,-822.2 355.52,-1077.64 417.95,-1103.4"/>
<polygon fill="black" stroke="black" points="417.04,-1106.79 427.51,-1105.22 418.34,-1099.91 417.04,-1106.79"/>
</g>
<!-- source_file -->
<g id="node20" class="node">
<title>source_file</title>
<polygon fill="none" stroke="black" points="446.5,-648 446.5,-670 559.5,-670 559.5,-648 446.5,-648"/>
<text text-anchor="start" x="471.88" y="-654.7" font-family="Times,serif" font-weight="bold" font-size="14.00">source_file</text>
<polygon fill="none" stroke="black" points="446.5,-625 446.5,-648 469.5,-648 469.5,-625 446.5,-625"/>
<text text-anchor="start" x="449.38" y="-631.7" font-family="Times,serif" font-size="14.00">🔑</text>
<polygon fill="none" stroke="black" points="469.5,-625 469.5,-648 559.5,-648 559.5,-625 469.5,-625"/>
<text text-anchor="start" x="509.25" y="-631.45" font-family="Times,serif" font-size="14.00">id</text>
<polygon fill="none" stroke="black" points="446.5,-603 446.5,-625 469.5,-625 469.5,-603 446.5,-603"/>
<text text-anchor="start" x="456.12" y="-608.7" font-family="Times,serif" font-size="14.00"> </text>
<polygon fill="none" stroke="black" points="469.5,-603 469.5,-625 559.5,-625 559.5,-603 469.5,-603"/>
<text text-anchor="start" x="494.62" y="-608.7" font-family="Times,serif" font-size="14.00">version</text>
<polygon fill="none" stroke="black" points="446.5,-581 446.5,-603 469.5,-603 469.5,-581 446.5,-581"/>
<text text-anchor="start" x="456.12" y="-586.7" font-family="Times,serif" font-size="14.00"> </text>
<polygon fill="none" stroke="black" points="469.5,-581 469.5,-603 559.5,-603 559.5,-581 469.5,-581"/>
<text text-anchor="start" x="483.75" y="-586.7" font-family="Times,serif" font-size="14.00">package_id</text>
<polygon fill="none" stroke="black" points="446.5,-559 446.5,-581 469.5,-581 469.5,-559 446.5,-559"/>
<text text-anchor="start" x="456.12" y="-564.7" font-family="Times,serif" font-size="14.00"> </text>
<polygon fill="none" stroke="black" points="469.5,-559 469.5,-581 559.5,-581 559.5,-559 469.5,-559"/>
<text text-anchor="start" x="475.5" y="-564.7" font-family="Times,serif" font-size="14.00">component_id</text>
<polygon fill="none" stroke="black" points="446.5,-537 446.5,-559 469.5,-559 469.5,-537 446.5,-537"/>
<text text-anchor="start" x="456.12" y="-542.7" font-family="Times,serif" font-size="14.00"> </text>
<polygon fill="none" stroke="black" points="469.5,-537 469.5,-559 559.5,-559 559.5,-537 469.5,-537"/>
<text text-anchor="start" x="499.5" y="-542.7" font-family="Times,serif" font-size="14.00">name</text>
<polygon fill="none" stroke="black" points="446.5,-515 446.5,-537 469.5,-537 469.5,-515 446.5,-515"/>
<text text-anchor="start" x="456.12" y="-520.7" font-family="Times,serif" font-size="14.00"> </text>
<polygon fill="none" stroke="black" points="469.5,-515 469.5,-537 559.5,-537 559.5,-515 469.5,-515"/>
<text text-anchor="start" x="472.12" y="-520.7" font-family="Times,serif" font-size="14.00">qualified_name</text>
<polygon fill="none" stroke="black" points="446.5,-493 446.5,-515 469.5,-515 469.5,-493 446.5,-493"/>
<text text-anchor="start" x="456.12" y="-498.7" font-family="Times,serif" font-size="14.00"> </text>
<polygon fill="none" stroke="black" points="469.5,-493 469.5,-515 559.5,-515 559.5,-493 469.5,-493"/>
<text text-anchor="start" x="488.62" y="-498.7" font-family="Times,serif" font-size="14.00">is_header</text>
<polygon fill="none" stroke="black" points="446.5,-471 446.5,-493 469.5,-493 469.5,-471 446.5,-471"/>
<text text-anchor="start" x="456.12" y="-476.7" font-family="Times,serif" font-size="14.00"> </text>
<polygon fill="none" stroke="black" points="469.5,-471 469.5,-493 559.5,-493 559.5,-471 469.5,-471"/>
<text text-anchor="start" x="502.12" y="-476.7" font-family="Times,serif" font-size="14.00">hash</text>
</g>
<!-- class_source_file&#45;&gt;source_file -->
<g id="edge25" class="edge">
<title>class_source_file:e&#45;&gt;source_file:w</title>
<path fill="none" stroke="black" d="M346.5,-703C395.36,-703 393.22,-646.48 434.12,-637.65"/>
<polygon fill="black" stroke="black" points="434.4,-641.14 443.99,-636.65 433.69,-634.18 434.4,-641.14"/>
</g>
<!-- component_relation -->
<g id="node5" class="node">
<title>component_relation</title>
<polygon fill="none" stroke="black" points="442,-1267.5 442,-1289.5 564,-1289.5 564,-1267.5 442,-1267.5"/>
<text text-anchor="start" x="444.88" y="-1274.2" font-family="Times,serif" font-weight="bold" font-size="14.00">component_relation</text>
<polygon fill="none" stroke="black" points="442,-1244.5 442,-1267.5 485,-1267.5 485,-1244.5 442,-1244.5"/>
<text text-anchor="start" x="454.88" y="-1251.2" font-family="Times,serif" font-size="14.00">🔑</text>
<polygon fill="none" stroke="black" points="485,-1244.5 485,-1267.5 564,-1267.5 564,-1244.5 485,-1244.5"/>
<text text-anchor="start" x="500.5" y="-1250.95" font-family="Times,serif" font-size="14.00">target_id</text>
<polygon fill="none" stroke="black" points="442,-1221.5 442,-1244.5 485,-1244.5 485,-1221.5 442,-1221.5"/>
<text text-anchor="start" x="454.88" y="-1228.2" font-family="Times,serif" font-size="14.00">🔑</text>
<polygon fill="none" stroke="black" points="485,-1221.5 485,-1244.5 564,-1244.5 564,-1221.5 485,-1221.5"/>
<text text-anchor="start" x="498.25" y="-1227.95" font-family="Times,serif" font-size="14.00">source_id</text>
</g>
<!-- source_component -->
<g id="node19" class="node">
<title>source_component</title>
<polygon fill="none" stroke="black" points="641.5,-1191 641.5,-1213 755.5,-1213 755.5,-1191 641.5,-1191"/>
<text text-anchor="start" x="644.12" y="-1197.7" font-family="Times,serif" font-weight="bold" font-size="14.00">source_component</text>
<polygon fill="none" stroke="black" points="641.5,-1168 641.5,-1191 664.5,-1191 664.5,-1168 641.5,-1168"/>
<text text-anchor="start" x="644.38" y="-1174.7" font-family="Times,serif" font-size="14.00">🔑</text>
<polygon fill="none" stroke="black" points="664.5,-1168 664.5,-1191 755.5,-1191 755.5,-1168 664.5,-1168"/>
<text text-anchor="start" x="704.75" y="-1174.45" font-family="Times,serif" font-size="14.00">id</text>
<polygon fill="none" stroke="black" points="641.5,-1146 641.5,-1168 664.5,-1168 664.5,-1146 641.5,-1146"/>
<text text-anchor="start" x="651.12" y="-1151.7" font-family="Times,serif" font-size="14.00"> </text>
<polygon fill="none" stroke="black" points="664.5,-1146 664.5,-1168 755.5,-1168 755.5,-1146 664.5,-1146"/>
<text text-anchor="start" x="690.12" y="-1151.7" font-family="Times,serif" font-size="14.00">version</text>
<polygon fill="none" stroke="black" points="641.5,-1124 641.5,-1146 664.5,-1146 664.5,-1124 641.5,-1124"/>
<text text-anchor="start" x="651.12" y="-1129.7" font-family="Times,serif" font-size="14.00"> </text>
<polygon fill="none" stroke="black" points="664.5,-1124 664.5,-1146 755.5,-1146 755.5,-1124 664.5,-1124"/>
<text text-anchor="start" x="667.62" y="-1129.7" font-family="Times,serif" font-size="14.00">qualified_name</text>
<polygon fill="none" stroke="black" points="641.5,-1102 641.5,-1124 664.5,-1124 664.5,-1102 641.5,-1102"/>
<text text-anchor="start" x="651.12" y="-1107.7" font-family="Times,serif" font-size="14.00"> </text>
<polygon fill="none" stroke="black" points="664.5,-1102 664.5,-1124 755.5,-1124 755.5,-1102 664.5,-1102"/>
<text text-anchor="start" x="695" y="-1107.7" font-family="Times,serif" font-size="14.00">name</text>
<polygon fill="none" stroke="black" points="641.5,-1080 641.5,-1102 664.5,-1102 664.5,-1080 641.5,-1080"/>
<text text-anchor="start" x="651.12" y="-1085.7" font-family="Times,serif" font-size="14.00"> </text>
<polygon fill="none" stroke="black" points="664.5,-1080 664.5,-1102 755.5,-1102 755.5,-1080 664.5,-1080"/>
<text text-anchor="start" x="679.25" y="-1085.7" font-family="Times,serif" font-size="14.00">package_id</text>
</g>
<!-- component_relation&#45;&gt;source_component -->
<g id="edge28" class="edge">
<title>component_relation:e&#45;&gt;source_component:w</title>
<path fill="none" stroke="black" d="M565,-1256C608.48,-1256 595.78,-1192.63 629.17,-1181.24"/>
<polygon fill="black" stroke="black" points="629.65,-1184.71 639,-1179.73 628.59,-1177.79 629.65,-1184.71"/>
</g>
<!-- component_relation&#45;&gt;source_component -->
<g id="edge29" class="edge">
<title>component_relation:e&#45;&gt;source_component:w</title>
<path fill="none" stroke="black" d="M565,-1233C601.95,-1233 600.25,-1189.82 629.35,-1181.04"/>
<polygon fill="black" stroke="black" points="629.58,-1184.55 639,-1179.71 628.62,-1177.61 629.58,-1184.55"/>
</g>
<!-- db_option -->
<g id="node6" class="node">
<title>db_option</title>
<polygon fill="none" stroke="black" points="49.5,-1734 49.5,-1756 113.5,-1756 113.5,-1734 49.5,-1734"/>
<text text-anchor="start" x="52.25" y="-1740.7" font-family="Times,serif" font-weight="bold" font-size="14.00">db_option</text>
<polygon fill="none" stroke="black" points="49.5,-1711 49.5,-1734 75.5,-1734 75.5,-1711 49.5,-1711"/>
<text text-anchor="start" x="53.88" y="-1717.7" font-family="Times,serif" font-size="14.00">🔑</text>
<polygon fill="none" stroke="black" points="75.5,-1711 75.5,-1734 113.5,-1734 113.5,-1711 75.5,-1711"/>
<text text-anchor="start" x="84.75" y="-1717.45" font-family="Times,serif" font-size="14.00">key</text>
<polygon fill="none" stroke="black" points="49.5,-1689 49.5,-1711 75.5,-1711 75.5,-1689 49.5,-1689"/>
<text text-anchor="start" x="60.62" y="-1694.7" font-family="Times,serif" font-size="14.00"> </text>
<polygon fill="none" stroke="black" points="75.5,-1689 75.5,-1711 113.5,-1711 113.5,-1689 75.5,-1689"/>
<text text-anchor="start" x="79.88" y="-1694.7" font-family="Times,serif" font-size="14.00">value</text>
</g>
<!-- dependencies -->
<g id="node7" class="node">
<title>dependencies</title>
<polygon fill="none" stroke="black" points="657.5,-1285.5 657.5,-1307.5 739.5,-1307.5 739.5,-1285.5 657.5,-1285.5"/>
<text text-anchor="start" x="660.25" y="-1292.2" font-family="Times,serif" font-weight="bold" font-size="14.00">dependencies</text>
<polygon fill="none" stroke="black" points="657.5,-1262.5 657.5,-1285.5 680.5,-1285.5 680.5,-1262.5 657.5,-1262.5"/>
<text text-anchor="start" x="660.38" y="-1269.2" font-family="Times,serif" font-size="14.00">🔑</text>
<polygon fill="none" stroke="black" points="680.5,-1262.5 680.5,-1285.5 739.5,-1285.5 739.5,-1262.5 680.5,-1262.5"/>
<text text-anchor="start" x="686" y="-1268.95" font-family="Times,serif" font-size="14.00">target_id</text>
<polygon fill="none" stroke="black" points="657.5,-1239.5 657.5,-1262.5 680.5,-1262.5 680.5,-1239.5 657.5,-1239.5"/>
<text text-anchor="start" x="660.38" y="-1246.2" font-family="Times,serif" font-size="14.00">🔑</text>
<polygon fill="none" stroke="black" points="680.5,-1239.5 680.5,-1262.5 739.5,-1262.5 739.5,-1239.5 680.5,-1239.5"/>
<text text-anchor="start" x="683.75" y="-1245.95" font-family="Times,serif" font-size="14.00">source_id</text>
</g>
<!-- dependencies&#45;&gt;source_package -->
<g id="edge34" class="edge">
<title>dependencies:e&#45;&gt;source_package:w</title>
<path fill="none" stroke="black" d="M740.5,-1251C760.04,-1251 765.27,-1242.12 777,-1226.5 812.22,-1179.59 764.48,-1102.91 808.71,-1092.65"/>
<polygon fill="black" stroke="black" points="808.9,-1096.15 818.49,-1091.65 808.19,-1089.18 808.9,-1096.15"/>
</g>
<!-- dependencies&#45;&gt;source_package -->
<g id="edge35" class="edge">
<title>dependencies:e&#45;&gt;source_package:w</title>
<path fill="none" stroke="black" d="M740.5,-1274C824.83,-1274 740.25,-1108.21 808.75,-1092.67"/>
<polygon fill="black" stroke="black" points="808.91,-1096.17 818.49,-1091.66 808.19,-1089.2 808.91,-1096.17"/>
</g>
<!-- error_messages -->
<g id="node8" class="node">
<title>error_messages</title>
<polygon fill="none" stroke="black" points="8.5,-1915 8.5,-1937 154.5,-1937 154.5,-1915 8.5,-1915"/>
<text text-anchor="start" x="36.12" y="-1921.7" font-family="Times,serif" font-weight="bold" font-size="14.00">error_messages</text>
<polygon fill="none" stroke="black" points="8.5,-1892 8.5,-1915 31.5,-1915 31.5,-1892 8.5,-1892"/>
<text text-anchor="start" x="11.38" y="-1898.7" font-family="Times,serif" font-size="14.00">🔑</text>
<polygon fill="none" stroke="black" points="31.5,-1892 31.5,-1915 154.5,-1915 154.5,-1892 31.5,-1892"/>
<text text-anchor="start" x="87.75" y="-1898.45" font-family="Times,serif" font-size="14.00">id</text>
<polygon fill="none" stroke="black" points="8.5,-1870 8.5,-1892 31.5,-1892 31.5,-1870 8.5,-1870"/>
<text text-anchor="start" x="18.12" y="-1875.7" font-family="Times,serif" font-size="14.00"> </text>
<polygon fill="none" stroke="black" points="31.5,-1870 31.5,-1892 154.5,-1892 154.5,-1870 31.5,-1870"/>
<text text-anchor="start" x="73.12" y="-1875.7" font-family="Times,serif" font-size="14.00">version</text>
<polygon fill="none" stroke="black" points="8.5,-1848 8.5,-1870 31.5,-1870 31.5,-1848 8.5,-1848"/>
<text text-anchor="start" x="18.12" y="-1853.7" font-family="Times,serif" font-size="14.00"> </text>
<polygon fill="none" stroke="black" points="31.5,-1848 31.5,-1870 154.5,-1870 154.5,-1848 31.5,-1848"/>
<text text-anchor="start" x="64.5" y="-1853.7" font-family="Times,serif" font-size="14.00">error_kind</text>
<polygon fill="none" stroke="black" points="8.5,-1826 8.5,-1848 31.5,-1848 31.5,-1826 8.5,-1826"/>
<text text-anchor="start" x="18.12" y="-1831.7" font-family="Times,serif" font-size="14.00"> </text>
<polygon fill="none" stroke="black" points="31.5,-1826 31.5,-1848 154.5,-1848 154.5,-1826 31.5,-1826"/>
<text text-anchor="start" x="34.5" y="-1831.7" font-family="Times,serif" font-size="14.00">fully_qualified_name</text>
<polygon fill="none" stroke="black" points="8.5,-1804 8.5,-1826 31.5,-1826 31.5,-1804 8.5,-1804"/>
<text text-anchor="start" x="18.12" y="-1809.7" font-family="Times,serif" font-size="14.00"> </text>
<polygon fill="none" stroke="black" points="31.5,-1804 31.5,-1826 154.5,-1826 154.5,-1804 31.5,-1804"/>
<text text-anchor="start" x="53.25" y="-1809.7" font-family="Times,serif" font-size="14.00">error_message</text>
<polygon fill="none" stroke="black" points="8.5,-1782 8.5,-1804 31.5,-1804 31.5,-1782 8.5,-1782"/>
<text text-anchor="start" x="18.12" y="-1787.7" font-family="Times,serif" font-size="14.00"> </text>
<polygon fill="none" stroke="black" points="31.5,-1782 31.5,-1804 154.5,-1804 154.5,-1782 31.5,-1782"/>
<text text-anchor="start" x="65.62" y="-1787.7" font-family="Times,serif" font-size="14.00">file_name</text>
</g>
<!-- field_declaration -->
<g id="node9" class="node">
<title>field_declaration</title>
<polygon fill="none" stroke="black" points="236,-940 236,-962 349,-962 349,-940 236,-940"/>
<text text-anchor="start" x="243.75" y="-946.7" font-family="Times,serif" font-weight="bold" font-size="14.00">field_declaration</text>
<polygon fill="none" stroke="black" points="236,-917 236,-940 259,-940 259,-917 236,-917"/>
<text text-anchor="start" x="238.88" y="-923.7" font-family="Times,serif" font-size="14.00">🔑</text>
<polygon fill="none" stroke="black" points="259,-917 259,-940 349,-940 349,-917 259,-917"/>
<text text-anchor="start" x="298.75" y="-923.45" font-family="Times,serif" font-size="14.00">id</text>
<polygon fill="none" stroke="black" points="236,-895 236,-917 259,-917 259,-895 236,-895"/>
<text text-anchor="start" x="245.62" y="-900.7" font-family="Times,serif" font-size="14.00"> </text>
<polygon fill="none" stroke="black" points="259,-895 259,-917 349,-917 349,-895 259,-895"/>
<text text-anchor="start" x="284.12" y="-900.7" font-family="Times,serif" font-size="14.00">version</text>
<polygon fill="none" stroke="black" points="236,-873 236,-895 259,-895 259,-873 236,-873"/>
<text text-anchor="start" x="245.62" y="-878.7" font-family="Times,serif" font-size="14.00"> </text>
<polygon fill="none" stroke="black" points="259,-873 259,-895 349,-895 349,-873 259,-873"/>
<text text-anchor="start" x="282.25" y="-878.7" font-family="Times,serif" font-size="14.00">class_id</text>
<polygon fill="none" stroke="black" points="236,-851 236,-873 259,-873 259,-851 236,-851"/>
<text text-anchor="start" x="245.62" y="-856.7" font-family="Times,serif" font-size="14.00"> </text>
<polygon fill="none" stroke="black" points="259,-851 259,-873 349,-873 349,-851 259,-851"/>
<text text-anchor="start" x="289" y="-856.7" font-family="Times,serif" font-size="14.00">name</text>
<polygon fill="none" stroke="black" points="236,-829 236,-851 259,-851 259,-829 236,-829"/>
<text text-anchor="start" x="245.62" y="-834.7" font-family="Times,serif" font-size="14.00"> </text>
<polygon fill="none" stroke="black" points="259,-829 259,-851 349,-851 349,-829 259,-829"/>
<text text-anchor="start" x="261.62" y="-834.7" font-family="Times,serif" font-size="14.00">qualified_name</text>
<polygon fill="none" stroke="black" points="236,-807 236,-829 259,-829 259,-807 236,-807"/>
<text text-anchor="start" x="245.62" y="-812.7" font-family="Times,serif" font-size="14.00"> </text>
<polygon fill="none" stroke="black" points="259,-807 259,-829 349,-829 349,-807 259,-807"/>
<text text-anchor="start" x="279.25" y="-812.7" font-family="Times,serif" font-size="14.00">signature</text>
<polygon fill="none" stroke="black" points="236,-785 236,-807 259,-807 259,-785 236,-785"/>
<text text-anchor="start" x="245.62" y="-790.7" font-family="Times,serif" font-size="14.00"> </text>
<polygon fill="none" stroke="black" points="259,-785 259,-807 349,-807 349,-785 259,-785"/>
<text text-anchor="start" x="286.75" y="-790.7" font-family="Times,serif" font-size="14.00">access</text>
<polygon fill="none" stroke="black" points="236,-763 236,-785 259,-785 259,-763 236,-763"/>
<text text-anchor="start" x="245.62" y="-768.7" font-family="Times,serif" font-size="14.00"> </text>
<polygon fill="none" stroke="black" points="259,-763 259,-785 349,-785 349,-763 259,-763"/>
<text text-anchor="start" x="281.88" y="-768.7" font-family="Times,serif" font-size="14.00">is_static</text>
</g>
<!-- field_declaration&#45;&gt;class_declaration -->
<g id="edge17" class="edge">
<title>field_declaration:e&#45;&gt;class_declaration:w</title>
<path fill="none" stroke="black" d="M350,-884C398.38,-884 380.1,-1073.84 418.59,-1102.02"/>
<polygon fill="black" stroke="black" points="416.97,-1105.17 427.56,-1105.02 419.19,-1098.53 416.97,-1105.17"/>
</g>
<!-- field_type -->
<g id="node10" class="node">
<title>field_type</title>
<polygon fill="none" stroke="black" points="30.5,-1125.5 30.5,-1147.5 132.5,-1147.5 132.5,-1125.5 30.5,-1125.5"/>
<text text-anchor="start" x="53" y="-1132.2" font-family="Times,serif" font-weight="bold" font-size="14.00">field_type</text>
<polygon fill="none" stroke="black" points="30.5,-1102.5 30.5,-1125.5 53.5,-1125.5 53.5,-1102.5 30.5,-1102.5"/>
<text text-anchor="start" x="33.38" y="-1109.2" font-family="Times,serif" font-size="14.00">🔑</text>
<polygon fill="none" stroke="black" points="53.5,-1102.5 53.5,-1125.5 132.5,-1125.5 132.5,-1102.5 53.5,-1102.5"/>
<text text-anchor="start" x="56.25" y="-1108.95" font-family="Times,serif" font-size="14.00">type_class_id</text>
<polygon fill="none" stroke="black" points="30.5,-1079.5 30.5,-1102.5 53.5,-1102.5 53.5,-1079.5 30.5,-1079.5"/>
<text text-anchor="start" x="33.38" y="-1086.2" font-family="Times,serif" font-size="14.00">🔑</text>
<polygon fill="none" stroke="black" points="53.5,-1079.5 53.5,-1102.5 132.5,-1102.5 132.5,-1079.5 53.5,-1079.5"/>
<text text-anchor="start" x="72" y="-1085.95" font-family="Times,serif" font-size="14.00">field_id</text>
</g>
<!-- field_type&#45;&gt;class_declaration -->
<g id="edge3" class="edge">
<title>field_type:e&#45;&gt;class_declaration:w</title>
<path fill="none" stroke="black" d="M133.5,-1114C203.61,-1114 140.03,-1219.59 199,-1257.5 268.91,-1302.44 319.71,-1307.64 386,-1257.5 438.49,-1217.8 368.65,-1118.94 417.56,-1106.74"/>
<polygon fill="black" stroke="black" points="417.93,-1110.22 427.5,-1105.66 417.18,-1103.26 417.93,-1110.22"/>
</g>
<!-- field_type&#45;&gt;field_declaration -->
<g id="edge4" class="edge">
<title>field_type:e&#45;&gt;field_declaration:w</title>
<path fill="none" stroke="black" d="M133.5,-1091C214.5,-1091 156.2,-943.98 223.59,-929.62"/>
<polygon fill="black" stroke="black" points="223.89,-933.11 233.49,-928.65 223.2,-926.15 223.89,-933.11"/>
</g>
<!-- function_calls -->
<g id="node11" class="node">
<title>function_calls</title>
<polygon fill="none" stroke="black" points="249.5,-338.5 249.5,-360.5 335.5,-360.5 335.5,-338.5 249.5,-338.5"/>
<text text-anchor="start" x="252.38" y="-345.2" font-family="Times,serif" font-weight="bold" font-size="14.00">function_calls</text>
<polygon fill="none" stroke="black" points="249.5,-315.5 249.5,-338.5 276.5,-338.5 276.5,-315.5 249.5,-315.5"/>
<text text-anchor="start" x="254.38" y="-322.2" font-family="Times,serif" font-size="14.00">🔑</text>
<polygon fill="none" stroke="black" points="276.5,-315.5 276.5,-338.5 335.5,-338.5 335.5,-315.5 276.5,-315.5"/>
<text text-anchor="start" x="282.38" y="-321.95" font-family="Times,serif" font-size="14.00">caller_id</text>
<polygon fill="none" stroke="black" points="249.5,-292.5 249.5,-315.5 276.5,-315.5 276.5,-292.5 249.5,-292.5"/>
<text text-anchor="start" x="254.38" y="-299.2" font-family="Times,serif" font-size="14.00">🔑</text>
<polygon fill="none" stroke="black" points="276.5,-292.5 276.5,-315.5 335.5,-315.5 335.5,-292.5 276.5,-292.5"/>
<text text-anchor="start" x="281.62" y="-298.95" font-family="Times,serif" font-size="14.00">callee_id</text>
</g>
<!-- function_declaration -->
<g id="node12" class="node">
<title>function_declaration</title>
<polygon fill="none" stroke="black" points="431.5,-384 431.5,-406 574.5,-406 574.5,-384 431.5,-384"/>
<text text-anchor="start" x="443" y="-390.7" font-family="Times,serif" font-weight="bold" font-size="14.00">function_declaration</text>
<polygon fill="none" stroke="black" points="431.5,-361 431.5,-384 454.5,-384 454.5,-361 431.5,-361"/>
<text text-anchor="start" x="434.38" y="-367.7" font-family="Times,serif" font-size="14.00">🔑</text>
<polygon fill="none" stroke="black" points="454.5,-361 454.5,-384 574.5,-384 574.5,-361 454.5,-361"/>
<text text-anchor="start" x="509.25" y="-367.45" font-family="Times,serif" font-size="14.00">id</text>
<polygon fill="none" stroke="black" points="431.5,-339 431.5,-361 454.5,-361 454.5,-339 431.5,-339"/>
<text text-anchor="start" x="441.12" y="-344.7" font-family="Times,serif" font-size="14.00"> </text>
<polygon fill="none" stroke="black" points="454.5,-339 454.5,-361 574.5,-361 574.5,-339 454.5,-339"/>
<text text-anchor="start" x="494.62" y="-344.7" font-family="Times,serif" font-size="14.00">version</text>
<polygon fill="none" stroke="black" points="431.5,-317 431.5,-339 454.5,-339 454.5,-317 431.5,-317"/>
<text text-anchor="start" x="441.12" y="-322.7" font-family="Times,serif" font-size="14.00"> </text>
<polygon fill="none" stroke="black" points="454.5,-317 454.5,-339 574.5,-339 574.5,-317 454.5,-317"/>
<text text-anchor="start" x="475.88" y="-322.7" font-family="Times,serif" font-size="14.00">namespace_id</text>
<polygon fill="none" stroke="black" points="431.5,-295 431.5,-317 454.5,-317 454.5,-295 431.5,-295"/>
<text text-anchor="start" x="441.12" y="-300.7" font-family="Times,serif" font-size="14.00"> </text>
<polygon fill="none" stroke="black" points="454.5,-295 454.5,-317 574.5,-317 574.5,-295 454.5,-295"/>
<text text-anchor="start" x="499.5" y="-300.7" font-family="Times,serif" font-size="14.00">name</text>
<polygon fill="none" stroke="black" points="431.5,-273 431.5,-295 454.5,-295 454.5,-273 431.5,-273"/>
<text text-anchor="start" x="441.12" y="-278.7" font-family="Times,serif" font-size="14.00"> </text>
<polygon fill="none" stroke="black" points="454.5,-273 454.5,-295 574.5,-295 574.5,-273 454.5,-273"/>
<text text-anchor="start" x="472.12" y="-278.7" font-family="Times,serif" font-size="14.00">qualified_name</text>
<polygon fill="none" stroke="black" points="431.5,-251 431.5,-273 454.5,-273 454.5,-251 431.5,-251"/>
<text text-anchor="start" x="441.12" y="-256.7" font-family="Times,serif" font-size="14.00"> </text>
<polygon fill="none" stroke="black" points="454.5,-251 454.5,-273 574.5,-273 574.5,-251 454.5,-251"/>
<text text-anchor="start" x="489.75" y="-256.7" font-family="Times,serif" font-size="14.00">signature</text>
<polygon fill="none" stroke="black" points="431.5,-229 431.5,-251 454.5,-251 454.5,-229 431.5,-229"/>
<text text-anchor="start" x="441.12" y="-234.7" font-family="Times,serif" font-size="14.00"> </text>
<polygon fill="none" stroke="black" points="454.5,-229 454.5,-251 574.5,-251 574.5,-229 454.5,-229"/>
<text text-anchor="start" x="483.38" y="-234.7" font-family="Times,serif" font-size="14.00">return_type</text>
<polygon fill="none" stroke="black" points="431.5,-207 431.5,-229 454.5,-229 454.5,-207 431.5,-207"/>
<text text-anchor="start" x="441.12" y="-212.7" font-family="Times,serif" font-size="14.00"> </text>
<polygon fill="none" stroke="black" points="454.5,-207 454.5,-229 574.5,-229 574.5,-207 454.5,-207"/>
<text text-anchor="start" x="457.5" y="-212.7" font-family="Times,serif" font-size="14.00">template_parameters</text>
</g>
<!-- function_calls&#45;&gt;function_declaration -->
<g id="edge11" class="edge">
<title>function_calls:e&#45;&gt;function_declaration:w</title>
<path fill="none" stroke="black" d="M336.5,-304C384.16,-304 379.9,-362.21 419.44,-371.31"/>
<polygon fill="black" stroke="black" points="418.68,-374.75 429,-372.34 419.43,-367.79 418.68,-374.75"/>
</g>
<!-- function_calls&#45;&gt;function_declaration -->
<g id="edge12" class="edge">
<title>function_calls:e&#45;&gt;function_declaration:w</title>
<path fill="none" stroke="black" d="M336.5,-327C378.93,-327 383.55,-365.02 419.48,-371.55"/>
<polygon fill="black" stroke="black" points="418.73,-375 428.99,-372.37 419.33,-368.02 418.73,-375"/>
</g>
<!-- function_declaration&#45;&gt;namespace_declaration -->
<g id="edge20" class="edge">
<title>function_declaration:e&#45;&gt;namespace_declaration:w</title>
<path fill="none" stroke="black" d="M575.5,-328C604.68,-328 596.67,-369.74 615.98,-380.82"/>
<polygon fill="black" stroke="black" points="614.99,-384.18 625.53,-383.14 616.64,-377.38 614.99,-384.18"/>
</g>
<!-- global_function_source_file -->
<g id="node13" class="node">
<title>global_function_source_file</title>
<polygon fill="none" stroke="black" points="210,-432.5 210,-454.5 375,-454.5 375,-432.5 210,-432.5"/>
<text text-anchor="start" x="213" y="-439.2" font-family="Times,serif" font-weight="bold" font-size="14.00">global_function_source_file</text>
<polygon fill="none" stroke="black" points="210,-409.5 210,-432.5 262,-432.5 262,-409.5 210,-409.5"/>
<text text-anchor="start" x="227.38" y="-416.2" font-family="Times,serif" font-size="14.00">🔑</text>
<polygon fill="none" stroke="black" points="262,-409.5 262,-432.5 375,-432.5 375,-409.5 262,-409.5"/>
<text text-anchor="start" x="279.88" y="-415.95" font-family="Times,serif" font-size="14.00">source_file_id</text>
<polygon fill="none" stroke="black" points="210,-386.5 210,-409.5 262,-409.5 262,-386.5 210,-386.5"/>
<text text-anchor="start" x="227.38" y="-393.2" font-family="Times,serif" font-size="14.00">🔑</text>
<polygon fill="none" stroke="black" points="262,-386.5 262,-409.5 375,-409.5 375,-386.5 262,-386.5"/>
<text text-anchor="start" x="287.38" y="-392.95" font-family="Times,serif" font-size="14.00">function_id</text>
</g>
<!-- global_function_source_file&#45;&gt;function_declaration -->
<g id="edge1" class="edge">
<title>global_function_source_file:e&#45;&gt;function_declaration:w</title>
<path fill="none" stroke="black" d="M376,-398C398.36,-398 402.73,-380.18 419.19,-374.33"/>
<polygon fill="black" stroke="black" points="419.69,-377.8 429.01,-372.74 418.57,-370.89 419.69,-377.8"/>
</g>
<!-- global_function_source_file&#45;&gt;source_file -->
<g id="edge2" class="edge">
<title>global_function_source_file:e&#45;&gt;source_file:w</title>
<path fill="none" stroke="black" d="M376,-421C472.51,-421 355.28,-619.18 434.26,-635.44"/>
<polygon fill="black" stroke="black" points="433.71,-638.91 443.99,-636.36 434.37,-631.94 433.71,-638.91"/>
</g>
<!-- includes -->
<g id="node14" class="node">
<title>includes</title>
<polygon fill="none" stroke="black" points="252,-620.5 252,-642.5 333,-642.5 333,-620.5 252,-620.5"/>
<text text-anchor="start" x="268.88" y="-627.2" font-family="Times,serif" font-weight="bold" font-size="14.00">includes</text>
<polygon fill="none" stroke="black" points="252,-597.5 252,-620.5 275,-620.5 275,-597.5 252,-597.5"/>
<text text-anchor="start" x="254.88" y="-604.2" font-family="Times,serif" font-size="14.00">🔑</text>
<polygon fill="none" stroke="black" points="275,-597.5 275,-620.5 333,-620.5 333,-597.5 275,-597.5"/>
<text text-anchor="start" x="280" y="-603.95" font-family="Times,serif" font-size="14.00">target_id</text>
<polygon fill="none" stroke="black" points="252,-574.5 252,-597.5 275,-597.5 275,-574.5 252,-574.5"/>
<text text-anchor="start" x="254.88" y="-581.2" font-family="Times,serif" font-size="14.00">🔑</text>
<polygon fill="none" stroke="black" points="275,-574.5 275,-597.5 333,-597.5 333,-574.5 275,-574.5"/>
<text text-anchor="start" x="277.75" y="-580.95" font-family="Times,serif" font-size="14.00">source_id</text>
</g>
<!-- includes&#45;&gt;source_file -->
<g id="edge37" class="edge">
<title>includes:e&#45;&gt;source_file:w</title>
<path fill="none" stroke="black" d="M334,-609C381.05,-609 392.73,-632.37 434.26,-636.02"/>
<polygon fill="black" stroke="black" points="433.85,-639.51 443.99,-636.44 434.15,-632.51 433.85,-639.51"/>
</g>
<!-- includes&#45;&gt;source_file -->
<g id="edge38" class="edge">
<title>includes:e&#45;&gt;source_file:w</title>
<path fill="none" stroke="black" d="M334,-586C384.36,-586 390.41,-629.28 434.2,-635.71"/>
<polygon fill="black" stroke="black" points="433.77,-639.19 443.99,-636.39 434.26,-632.2 433.77,-639.19"/>
</g>
<!-- method_argument_class -->
<g id="node15" class="node">
<title>method_argument_class</title>
<polygon fill="none" stroke="black" points="8,-1640.5 8,-1662.5 155,-1662.5 155,-1640.5 8,-1640.5"/>
<text text-anchor="start" x="10.62" y="-1647.2" font-family="Times,serif" font-weight="bold" font-size="14.00">method_argument_class</text>
<polygon fill="none" stroke="black" points="8,-1617.5 8,-1640.5 53,-1640.5 53,-1617.5 8,-1617.5"/>
<text text-anchor="start" x="21.88" y="-1624.2" font-family="Times,serif" font-size="14.00">🔑</text>
<polygon fill="none" stroke="black" points="53,-1617.5 53,-1640.5 155,-1640.5 155,-1617.5 53,-1617.5"/>
<text text-anchor="start" x="67.25" y="-1623.95" font-family="Times,serif" font-size="14.00">type_class_id</text>
<polygon fill="none" stroke="black" points="8,-1594.5 8,-1617.5 53,-1617.5 53,-1594.5 8,-1594.5"/>
<text text-anchor="start" x="21.88" y="-1601.2" font-family="Times,serif" font-size="14.00">🔑</text>
<polygon fill="none" stroke="black" points="53,-1594.5 53,-1617.5 155,-1617.5 155,-1594.5 53,-1594.5"/>
<text text-anchor="start" x="74.75" y="-1600.95" font-family="Times,serif" font-size="14.00">method_id</text>
</g>
<!-- method_argument_class&#45;&gt;class_declaration -->
<g id="edge9" class="edge">
<title>method_argument_class:e&#45;&gt;class_declaration:w</title>
<path fill="none" stroke="black" d="M156,-1629C258.23,-1629 310.93,-1700.89 386,-1631.5 426.29,-1594.26 377.5,-1166.32 419.07,-1111.31"/>
<polygon fill="black" stroke="black" points="420.83,-1114.33 427.69,-1106.26 417.29,-1108.29 420.83,-1114.33"/>
</g>
<!-- method_declaration -->
<g id="node16" class="node">
<title>method_declaration</title>
<polygon fill="none" stroke="black" points="221,-1596 221,-1618 364,-1618 364,-1596 221,-1596"/>
<text text-anchor="start" x="234.38" y="-1602.7" font-family="Times,serif" font-weight="bold" font-size="14.00">method_declaration</text>
<polygon fill="none" stroke="black" points="221,-1573 221,-1596 244,-1596 244,-1573 221,-1573"/>
<text text-anchor="start" x="223.88" y="-1579.7" font-family="Times,serif" font-size="14.00">🔑</text>
<polygon fill="none" stroke="black" points="244,-1573 244,-1596 364,-1596 364,-1573 244,-1573"/>
<text text-anchor="start" x="298.75" y="-1579.45" font-family="Times,serif" font-size="14.00">id</text>
<polygon fill="none" stroke="black" points="221,-1551 221,-1573 244,-1573 244,-1551 221,-1551"/>
<text text-anchor="start" x="230.62" y="-1556.7" font-family="Times,serif" font-size="14.00"> </text>
<polygon fill="none" stroke="black" points="244,-1551 244,-1573 364,-1573 364,-1551 244,-1551"/>
<text text-anchor="start" x="284.12" y="-1556.7" font-family="Times,serif" font-size="14.00">version</text>
<polygon fill="none" stroke="black" points="221,-1529 221,-1551 244,-1551 244,-1529 221,-1529"/>
<text text-anchor="start" x="230.62" y="-1534.7" font-family="Times,serif" font-size="14.00"> </text>
<polygon fill="none" stroke="black" points="244,-1529 244,-1551 364,-1551 364,-1529 244,-1529"/>
<text text-anchor="start" x="282.25" y="-1534.7" font-family="Times,serif" font-size="14.00">class_id</text>
<polygon fill="none" stroke="black" points="221,-1507 221,-1529 244,-1529 244,-1507 221,-1507"/>
<text text-anchor="start" x="230.62" y="-1512.7" font-family="Times,serif" font-size="14.00"> </text>
<polygon fill="none" stroke="black" points="244,-1507 244,-1529 364,-1529 364,-1507 244,-1507"/>
<text text-anchor="start" x="289" y="-1512.7" font-family="Times,serif" font-size="14.00">name</text>
<polygon fill="none" stroke="black" points="221,-1485 221,-1507 244,-1507 244,-1485 221,-1485"/>
<text text-anchor="start" x="230.62" y="-1490.7" font-family="Times,serif" font-size="14.00"> </text>
<polygon fill="none" stroke="black" points="244,-1485 244,-1507 364,-1507 364,-1485 244,-1485"/>
<text text-anchor="start" x="261.62" y="-1490.7" font-family="Times,serif" font-size="14.00">qualified_name</text>
<polygon fill="none" stroke="black" points="221,-1463 221,-1485 244,-1485 244,-1463 221,-1463"/>
<text text-anchor="start" x="230.62" y="-1468.7" font-family="Times,serif" font-size="14.00"> </text>
<polygon fill="none" stroke="black" points="244,-1463 244,-1485 364,-1485 364,-1463 244,-1463"/>
<text text-anchor="start" x="279.25" y="-1468.7" font-family="Times,serif" font-size="14.00">signature</text>
<polygon fill="none" stroke="black" points="221,-1441 221,-1463 244,-1463 244,-1441 221,-1441"/>
<text text-anchor="start" x="230.62" y="-1446.7" font-family="Times,serif" font-size="14.00"> </text>
<polygon fill="none" stroke="black" points="244,-1441 244,-1463 364,-1463 364,-1441 244,-1441"/>
<text text-anchor="start" x="272.88" y="-1446.7" font-family="Times,serif" font-size="14.00">return_type</text>
<polygon fill="none" stroke="black" points="221,-1419 221,-1441 244,-1441 244,-1419 221,-1419"/>
<text text-anchor="start" x="230.62" y="-1424.7" font-family="Times,serif" font-size="14.00"> </text>
<polygon fill="none" stroke="black" points="244,-1419 244,-1441 364,-1441 364,-1419 244,-1419"/>
<text text-anchor="start" x="247" y="-1424.7" font-family="Times,serif" font-size="14.00">template_parameters</text>
<polygon fill="none" stroke="black" points="221,-1397 221,-1419 244,-1419 244,-1397 221,-1397"/>
<text text-anchor="start" x="230.62" y="-1402.7" font-family="Times,serif" font-size="14.00"> </text>
<polygon fill="none" stroke="black" points="244,-1397 244,-1419 364,-1419 364,-1397 244,-1397"/>
<text text-anchor="start" x="286.75" y="-1402.7" font-family="Times,serif" font-size="14.00">access</text>
<polygon fill="none" stroke="black" points="221,-1375 221,-1397 244,-1397 244,-1375 221,-1375"/>
<text text-anchor="start" x="230.62" y="-1380.7" font-family="Times,serif" font-size="14.00"> </text>
<polygon fill="none" stroke="black" points="244,-1375 244,-1397 364,-1397 364,-1375 244,-1375"/>
<text text-anchor="start" x="278.5" y="-1380.7" font-family="Times,serif" font-size="14.00">is_virtual</text>
<polygon fill="none" stroke="black" points="221,-1353 221,-1375 244,-1375 244,-1353 221,-1353"/>
<text text-anchor="start" x="230.62" y="-1358.7" font-family="Times,serif" font-size="14.00"> </text>
<polygon fill="none" stroke="black" points="244,-1353 244,-1375 364,-1375 364,-1353 244,-1353"/>
<text text-anchor="start" x="284.12" y="-1358.7" font-family="Times,serif" font-size="14.00">is_pure</text>
<polygon fill="none" stroke="black" points="221,-1331 221,-1353 244,-1353 244,-1331 221,-1331"/>
<text text-anchor="start" x="230.62" y="-1336.7" font-family="Times,serif" font-size="14.00"> </text>
<polygon fill="none" stroke="black" points="244,-1331 244,-1353 364,-1353 364,-1331 244,-1331"/>
<text text-anchor="start" x="281.88" y="-1336.7" font-family="Times,serif" font-size="14.00">is_static</text>
<polygon fill="none" stroke="black" points="221,-1309 221,-1331 244,-1331 244,-1309 221,-1309"/>
<text text-anchor="start" x="230.62" y="-1314.7" font-family="Times,serif" font-size="14.00"> </text>
<polygon fill="none" stroke="black" points="244,-1309 244,-1331 364,-1331 364,-1309 244,-1309"/>
<text text-anchor="start" x="281.88" y="-1314.7" font-family="Times,serif" font-size="14.00">is_const</text>
</g>
<!-- method_argument_class&#45;&gt;method_declaration -->
<g id="edge10" class="edge">
<title>method_argument_class:e&#45;&gt;method_declaration:w</title>
<path fill="none" stroke="black" d="M156,-1606C181.79,-1606 188.36,-1590.12 208.74,-1585.66"/>
<polygon fill="black" stroke="black" points="208.9,-1589.16 218.49,-1584.65 208.19,-1582.19 208.9,-1589.16"/>
</g>
<!-- method_declaration&#45;&gt;class_declaration -->
<g id="edge16" class="edge">
<title>method_declaration:e&#45;&gt;class_declaration:w</title>
<path fill="none" stroke="black" d="M365,-1540C458.59,-1540 341.78,-1140.41 418.11,-1107.63"/>
<polygon fill="black" stroke="black" points="418.37,-1111.15 427.51,-1105.79 417.03,-1104.28 418.37,-1111.15"/>
</g>
<!-- namespace_declaration&#45;&gt;namespace_declaration -->
<g id="edge13" class="edge">
<title>namespace_declaration:e&#45;&gt;namespace_declaration:w</title>
<path fill="none" stroke="black" d="M769,-339C817.5,-368.5 817.5,-439 698.5,-439 587.87,-439 580.09,-416.53 618.51,-389.66"/>
<polygon fill="black" stroke="black" points="620.25,-392.71 626.73,-384.32 616.44,-386.84 620.25,-392.71"/>
</g>
<!-- namespace_source_file -->
<g id="node18" class="node">
<title>namespace_source_file</title>
<polygon fill="none" stroke="black" points="223.5,-526.5 223.5,-548.5 361.5,-548.5 361.5,-526.5 223.5,-526.5"/>
<text text-anchor="start" x="226.12" y="-533.2" font-family="Times,serif" font-weight="bold" font-size="14.00">namespace_source_file</text>
<polygon fill="none" stroke="black" points="223.5,-503.5 223.5,-526.5 262.5,-526.5 262.5,-503.5 223.5,-503.5"/>
<text text-anchor="start" x="234.38" y="-510.2" font-family="Times,serif" font-size="14.00">🔑</text>
<polygon fill="none" stroke="black" points="262.5,-503.5 262.5,-526.5 361.5,-526.5 361.5,-503.5 262.5,-503.5"/>
<text text-anchor="start" x="273.38" y="-509.95" font-family="Times,serif" font-size="14.00">source_file_id</text>
<polygon fill="none" stroke="black" points="223.5,-480.5 223.5,-503.5 262.5,-503.5 262.5,-480.5 223.5,-480.5"/>
<text text-anchor="start" x="234.38" y="-487.2" font-family="Times,serif" font-size="14.00">🔑</text>
<polygon fill="none" stroke="black" points="262.5,-480.5 262.5,-503.5 361.5,-503.5 361.5,-480.5 262.5,-480.5"/>
<text text-anchor="start" x="273.38" y="-486.95" font-family="Times,serif" font-size="14.00">namespace_id</text>
</g>
<!-- namespace_source_file&#45;&gt;namespace_declaration -->
<g id="edge7" class="edge">
<title>namespace_source_file:e&#45;&gt;namespace_declaration:w</title>
<path fill="none" stroke="black" d="M362.5,-492C392.85,-492 393.76,-469.6 422,-458.5 490.92,-431.41 517.86,-452.82 584,-419.5 602.26,-410.3 602.73,-391.97 616.06,-385.68"/>
<polygon fill="black" stroke="black" points="616.39,-389.18 625.52,-383.8 615.02,-382.32 616.39,-389.18"/>
</g>
<!-- namespace_source_file&#45;&gt;source_file -->
<g id="edge8" class="edge">
<title>namespace_source_file:e&#45;&gt;source_file:w</title>
<path fill="none" stroke="black" d="M362.5,-515C423.68,-515 385.79,-621.34 434.2,-635.05"/>
<polygon fill="black" stroke="black" points="433.63,-638.51 444,-636.31 434.53,-631.56 433.63,-638.51"/>
</g>
<!-- source_component&#45;&gt;source_package -->
<g id="edge39" class="edge">
<title>source_component:e&#45;&gt;source_package:w</title>
<path fill="none" stroke="black" d="M756.5,-1091C780.53,-1091 789.22,-1091.36 808.69,-1091.47"/>
<polygon fill="black" stroke="black" points="808.48,-1094.97 818.49,-1091.5 808.5,-1087.97 808.48,-1094.97"/>
</g>
<!-- source_file&#45;&gt;source_component -->
<g id="edge26" class="edge">
<title>source_file:e&#45;&gt;source_component:w</title>
<path fill="none" stroke="black" d="M560.5,-570C693.1,-570 514.93,-1144.31 629.33,-1177.96"/>
<polygon fill="black" stroke="black" points="628.62,-1181.4 639,-1179.29 629.57,-1174.46 628.62,-1181.4"/>
</g>
<!-- source_file&#45;&gt;source_package -->
<g id="edge27" class="edge">
<title>source_file:e&#45;&gt;source_package:w</title>
<path fill="none" stroke="black" d="M560.5,-592C567.68,-592 773.76,-1012.91 813.57,-1081.97"/>
<polygon fill="black" stroke="black" points="810.66,-1083.91 819.15,-1090.25 816.46,-1080 810.66,-1083.91"/>
</g>
<!-- source_package&#45;&gt;source_package -->
<g id="edge30" class="edge">
<title>source_package:e&#45;&gt;source_package:w</title>
<path fill="none" stroke="black" d="M964,-1047C1009,-1083.83 1009,-1147 892.5,-1147 783.74,-1147 776.51,-1130.73 812.65,-1098.6"/>
<polygon fill="black" stroke="black" points="814.49,-1101.62 819.85,-1092.48 809.96,-1096.29 814.49,-1101.62"/>
</g>
<!-- source_repository -->
<g id="node22" class="node">
<title>source_repository</title>
<polygon fill="none" stroke="black" points="1016,-1037 1016,-1059 1129,-1059 1129,-1037 1016,-1037"/>
<text text-anchor="start" x="1020.75" y="-1043.7" font-family="Times,serif" font-weight="bold" font-size="14.00">source_repository</text>
<polygon fill="none" stroke="black" points="1016,-1014 1016,-1037 1039,-1037 1039,-1014 1016,-1014"/>
<text text-anchor="start" x="1018.88" y="-1020.7" font-family="Times,serif" font-size="14.00">🔑</text>
<polygon fill="none" stroke="black" points="1039,-1014 1039,-1037 1129,-1037 1129,-1014 1039,-1014"/>
<text text-anchor="start" x="1078.75" y="-1020.45" font-family="Times,serif" font-size="14.00">id</text>
<polygon fill="none" stroke="black" points="1016,-992 1016,-1014 1039,-1014 1039,-992 1016,-992"/>
<text text-anchor="start" x="1025.62" y="-997.7" font-family="Times,serif" font-size="14.00"> </text>
<polygon fill="none" stroke="black" points="1039,-992 1039,-1014 1129,-1014 1129,-992 1039,-992"/>
<text text-anchor="start" x="1064.12" y="-997.7" font-family="Times,serif" font-size="14.00">version</text>
<polygon fill="none" stroke="black" points="1016,-970 1016,-992 1039,-992 1039,-970 1016,-970"/>
<text text-anchor="start" x="1025.62" y="-975.7" font-family="Times,serif" font-size="14.00"> </text>
<polygon fill="none" stroke="black" points="1039,-970 1039,-992 1129,-992 1129,-970 1039,-970"/>
<text text-anchor="start" x="1069" y="-975.7" font-family="Times,serif" font-size="14.00">name</text>
<polygon fill="none" stroke="black" points="1016,-948 1016,-970 1039,-970 1039,-948 1016,-948"/>
<text text-anchor="start" x="1025.62" y="-953.7" font-family="Times,serif" font-size="14.00"> </text>
<polygon fill="none" stroke="black" points="1039,-948 1039,-970 1129,-970 1129,-948 1039,-948"/>
<text text-anchor="start" x="1041.62" y="-953.7" font-family="Times,serif" font-size="14.00">qualified_name</text>
<polygon fill="none" stroke="black" points="1016,-926 1016,-948 1039,-948 1039,-926 1016,-926"/>
<text text-anchor="start" x="1025.62" y="-931.7" font-family="Times,serif" font-size="14.00"> </text>
<polygon fill="none" stroke="black" points="1039,-926 1039,-948 1129,-948 1129,-926 1039,-926"/>
<text text-anchor="start" x="1057.75" y="-931.7" font-family="Times,serif" font-size="14.00">disk_path</text>
</g>
<!-- source_package&#45;&gt;source_repository -->
<g id="edge31" class="edge">
<title>source_package:e&#45;&gt;source_repository:w</title>
<path fill="none" stroke="black" d="M965,-1025C982.88,-1025 989.97,-1025.32 1003.64,-1025.45"/>
<polygon fill="black" stroke="black" points="1003.47,-1028.95 1013.49,-1025.49 1003.5,-1021.95 1003.47,-1028.95"/>
</g>
<!-- udt_component -->
<g id="node23" class="node">
<title>udt_component</title>
<polygon fill="none" stroke="black" points="239,-1728.5 239,-1750.5 346,-1750.5 346,-1728.5 239,-1728.5"/>
<text text-anchor="start" x="247.12" y="-1735.2" font-family="Times,serif" font-weight="bold" font-size="14.00">udt_component</text>
<polygon fill="none" stroke="black" points="239,-1705.5 239,-1728.5 262,-1728.5 262,-1705.5 239,-1705.5"/>
<text text-anchor="start" x="241.88" y="-1712.2" font-family="Times,serif" font-size="14.00">🔑</text>
<polygon fill="none" stroke="black" points="262,-1705.5 262,-1728.5 346,-1728.5 346,-1705.5 262,-1705.5"/>
<text text-anchor="start" x="265" y="-1711.95" font-family="Times,serif" font-size="14.00">component_id</text>
<polygon fill="none" stroke="black" points="239,-1682.5 239,-1705.5 262,-1705.5 262,-1682.5 239,-1682.5"/>
<text text-anchor="start" x="241.88" y="-1689.2" font-family="Times,serif" font-size="14.00">🔑</text>
<polygon fill="none" stroke="black" points="262,-1682.5 262,-1705.5 346,-1705.5 346,-1682.5 262,-1682.5"/>
<text text-anchor="start" x="286.75" y="-1688.95" font-family="Times,serif" font-size="14.00">udt_id</text>
</g>
<!-- udt_component&#45;&gt;class_declaration -->
<g id="edge5" class="edge">
<title>udt_component:e&#45;&gt;class_declaration:w</title>
<path fill="none" stroke="black" d="M347,-1694C452.93,-1694 376.91,-1694.96 422,-1175.5 424.26,-1149.46 405.78,-1118.04 417.93,-1108.43"/>
<polygon fill="black" stroke="black" points="418.77,-1111.83 427.54,-1105.89 416.97,-1105.06 418.77,-1111.83"/>
</g>
<!-- udt_component&#45;&gt;source_component -->
<g id="edge6" class="edge">
<title>udt_component:e&#45;&gt;source_component:w</title>
<path fill="none" stroke="black" d="M347,-1717C376.07,-1717 375.79,-1691.72 386,-1664.5 421.7,-1569.33 352.06,-1282.26 422,-1208.5 453.4,-1175.39 573.43,-1178.8 629.3,-1179.42"/>
<polygon fill="black" stroke="black" points="628.96,-1182.92 638.99,-1179.49 629.01,-1175.92 628.96,-1182.92"/>
</g>
<!-- uses_in_the_implementation -->
<g id="node24" class="node">
<title>uses_in_the_implementation</title>
<polygon fill="none" stroke="black" points="207,-1222.5 207,-1244.5 378,-1244.5 378,-1222.5 207,-1222.5"/>
<text text-anchor="start" x="209.62" y="-1229.2" font-family="Times,serif" font-weight="bold" font-size="14.00">uses_in_the_implementation</text>
<polygon fill="none" stroke="black" points="207,-1199.5 207,-1222.5 275,-1222.5 275,-1199.5 207,-1199.5"/>
<text text-anchor="start" x="232.38" y="-1206.2" font-family="Times,serif" font-size="14.00">🔑</text>
<polygon fill="none" stroke="black" points="275,-1199.5 275,-1222.5 378,-1222.5 378,-1199.5 275,-1199.5"/>
<text text-anchor="start" x="302.5" y="-1205.95" font-family="Times,serif" font-size="14.00">target_id</text>
<polygon fill="none" stroke="black" points="207,-1176.5 207,-1199.5 275,-1199.5 275,-1176.5 207,-1176.5"/>
<text text-anchor="start" x="232.38" y="-1183.2" font-family="Times,serif" font-size="14.00">🔑</text>
<polygon fill="none" stroke="black" points="275,-1176.5 275,-1199.5 378,-1199.5 378,-1176.5 275,-1176.5"/>
<text text-anchor="start" x="300.25" y="-1182.95" font-family="Times,serif" font-size="14.00">source_id</text>
</g>
<!-- uses_in_the_implementation&#45;&gt;class_declaration -->
<g id="edge18" class="edge">
<title>uses_in_the_implementation:e&#45;&gt;class_declaration:w</title>
<path fill="none" stroke="black" d="M379,-1188C417.35,-1188 392.79,-1121.98 417.87,-1108.06"/>
<polygon fill="black" stroke="black" points="418.56,-1111.49 427.52,-1105.84 416.99,-1104.67 418.56,-1111.49"/>
</g>
<!-- uses_in_the_implementation&#45;&gt;class_declaration -->
<g id="edge19" class="edge">
<title>uses_in_the_implementation:e&#45;&gt;class_declaration:w</title>
<path fill="none" stroke="black" d="M379,-1211C426.43,-1211 385.57,-1122.85 417.83,-1107.7"/>
<polygon fill="black" stroke="black" points="418.38,-1111.16 427.52,-1105.79 417.03,-1104.29 418.38,-1111.16"/>
</g>
<!-- uses_in_the_interface -->
<g id="node25" class="node">
<title>uses_in_the_interface</title>
<polygon fill="none" stroke="black" points="227.5,-1128.5 227.5,-1150.5 357.5,-1150.5 357.5,-1128.5 227.5,-1128.5"/>
<text text-anchor="start" x="230.25" y="-1135.2" font-family="Times,serif" font-weight="bold" font-size="14.00">uses_in_the_interface</text>
<polygon fill="none" stroke="black" points="227.5,-1105.5 227.5,-1128.5 274.5,-1128.5 274.5,-1105.5 227.5,-1105.5"/>
<text text-anchor="start" x="242.38" y="-1112.2" font-family="Times,serif" font-size="14.00">🔑</text>
<polygon fill="none" stroke="black" points="274.5,-1105.5 274.5,-1128.5 357.5,-1128.5 357.5,-1105.5 274.5,-1105.5"/>
<text text-anchor="start" x="292" y="-1111.95" font-family="Times,serif" font-size="14.00">target_id</text>
<polygon fill="none" stroke="black" points="227.5,-1082.5 227.5,-1105.5 274.5,-1105.5 274.5,-1082.5 227.5,-1082.5"/>
<text text-anchor="start" x="242.38" y="-1089.2" font-family="Times,serif" font-size="14.00">🔑</text>
<polygon fill="none" stroke="black" points="274.5,-1082.5 274.5,-1105.5 357.5,-1105.5 357.5,-1082.5 274.5,-1082.5"/>
<text text-anchor="start" x="289.75" y="-1088.95" font-family="Times,serif" font-size="14.00">source_id</text>
</g>
<!-- uses_in_the_interface&#45;&gt;class_declaration -->
<g id="edge14" class="edge">
<title>uses_in_the_interface:e&#45;&gt;class_declaration:w</title>
<path fill="none" stroke="black" d="M358.5,-1094C386.03,-1094 394.96,-1102.65 417.54,-1104.95"/>
<polygon fill="black" stroke="black" points="417.33,-1108.44 427.49,-1105.43 417.67,-1101.45 417.33,-1108.44"/>
</g>
<!-- uses_in_the_interface&#45;&gt;class_declaration -->
<g id="edge15" class="edge">
<title>uses_in_the_interface:e&#45;&gt;class_declaration:w</title>
<path fill="none" stroke="black" d="M358.5,-1117C386.03,-1117 394.96,-1108.35 417.54,-1106.05"/>
<polygon fill="black" stroke="black" points="417.67,-1109.55 427.49,-1105.57 417.33,-1102.56 417.67,-1109.55"/>
</g>
<!-- variable_declaration -->
<g id="node26" class="node">
<title>variable_declaration</title>
<polygon fill="none" stroke="black" points="440.5,-159 440.5,-181 565.5,-181 565.5,-159 440.5,-159"/>
<text text-anchor="start" x="443.38" y="-165.7" font-family="Times,serif" font-weight="bold" font-size="14.00">variable_declaration</text>
<polygon fill="none" stroke="black" points="440.5,-136 440.5,-159 469.5,-159 469.5,-136 440.5,-136"/>
<text text-anchor="start" x="446.38" y="-142.7" font-family="Times,serif" font-size="14.00">🔑</text>
<polygon fill="none" stroke="black" points="469.5,-136 469.5,-159 565.5,-159 565.5,-136 469.5,-136"/>
<text text-anchor="start" x="512.25" y="-142.45" font-family="Times,serif" font-size="14.00">id</text>
<polygon fill="none" stroke="black" points="440.5,-114 440.5,-136 469.5,-136 469.5,-114 440.5,-114"/>
<text text-anchor="start" x="453.12" y="-119.7" font-family="Times,serif" font-size="14.00"> </text>
<polygon fill="none" stroke="black" points="469.5,-114 469.5,-136 565.5,-136 565.5,-114 469.5,-114"/>
<text text-anchor="start" x="497.62" y="-119.7" font-family="Times,serif" font-size="14.00">version</text>
<polygon fill="none" stroke="black" points="440.5,-92 440.5,-114 469.5,-114 469.5,-92 440.5,-92"/>
<text text-anchor="start" x="453.12" y="-97.7" font-family="Times,serif" font-size="14.00"> </text>
<polygon fill="none" stroke="black" points="469.5,-92 469.5,-114 565.5,-114 565.5,-92 469.5,-92"/>
<text text-anchor="start" x="478.88" y="-97.7" font-family="Times,serif" font-size="14.00">namespace_id</text>
<polygon fill="none" stroke="black" points="440.5,-70 440.5,-92 469.5,-92 469.5,-70 440.5,-70"/>
<text text-anchor="start" x="453.12" y="-75.7" font-family="Times,serif" font-size="14.00"> </text>
<polygon fill="none" stroke="black" points="469.5,-70 469.5,-92 565.5,-92 565.5,-70 469.5,-70"/>
<text text-anchor="start" x="502.5" y="-75.7" font-family="Times,serif" font-size="14.00">name</text>
<polygon fill="none" stroke="black" points="440.5,-48 440.5,-70 469.5,-70 469.5,-48 440.5,-48"/>
<text text-anchor="start" x="453.12" y="-53.7" font-family="Times,serif" font-size="14.00"> </text>
<polygon fill="none" stroke="black" points="469.5,-48 469.5,-70 565.5,-70 565.5,-48 469.5,-48"/>
<text text-anchor="start" x="475.12" y="-53.7" font-family="Times,serif" font-size="14.00">qualified_name</text>
<polygon fill="none" stroke="black" points="440.5,-26 440.5,-48 469.5,-48 469.5,-26 440.5,-26"/>
<text text-anchor="start" x="453.12" y="-31.7" font-family="Times,serif" font-size="14.00"> </text>
<polygon fill="none" stroke="black" points="469.5,-26 469.5,-48 565.5,-48 565.5,-26 469.5,-26"/>
<text text-anchor="start" x="492.75" y="-31.7" font-family="Times,serif" font-size="14.00">signature</text>
<polygon fill="none" stroke="black" points="440.5,-4 440.5,-26 469.5,-26 469.5,-4 440.5,-4"/>
<text text-anchor="start" x="453.12" y="-9.7" font-family="Times,serif" font-size="14.00"> </text>
<polygon fill="none" stroke="black" points="469.5,-4 469.5,-26 565.5,-26 565.5,-4 469.5,-4"/>
<text text-anchor="start" x="492.75" y="-9.7" font-family="Times,serif" font-size="14.00">is_global</text>
</g>
<!-- variable_declaration&#45;&gt;namespace_declaration -->
<g id="edge36" class="edge">
<title>variable_declaration:e&#45;&gt;namespace_declaration:w</title>
<path fill="none" stroke="black" d="M566.5,-103C626.16,-103 571.33,-348.51 616.23,-380.15"/>
<polygon fill="black" stroke="black" points="614.97,-383.43 625.55,-383.05 617.04,-376.74 614.97,-383.43"/>
</g>
</g>
</svg>
